a,003,2018-01-01,00:03:31,2728,-0004
a,003,2018-01-01,00:03:32,2728,-0104
a,003,2018-01-01,00:03:33,2728,-0124
a,003,2018-01-01,00:03:34,2728,-0250
a,003,2018-01-01,00:03:35,2728,-0225
a,003,2018-01-01,00:03:36,2728,-0104
a,003,2018-01-01,00:03:37,2728,-0054
a,003,2018-01-01,00:03:38,2728,-0004
a,003,2018-01-01,00:03:39,2728,-0004
a,003,2018-01-01,00:03:40,2728,+0004
a,003,2018-01-01,00:03:41,2728,+0004
a,003,2018-01-01,00:03:42,2728,+0014
a,003,2018-01-01,00:03:43,2728,+0054
a,003,2018-01-01,00:03:44,2728,-0104
a,003,2018-01-01,00:03:45,2728,-0004
a,003,2018-01-01,00:03:46,2728,-0004
a,003,2018-01-01,00:03:47,2728,-0004
a,003,2018-01-01,00:03:48,2728,+0004
a,003,2018-01-01,00:03:49,2728,+0004
a,003,2018-01-01,00:03:50,2728,+0004
a,003,2018-01-01,00:03:51,2728,+0004
a,003,2018-01-01,00:03:52,2728,+0004
a,003,2018-01-01,00:03:53,2728,+0034
a,003,2018-01-01,00:03:54,2728,+0054
a,003,2018-01-01,00:03:55,2728,+0024
a,003,2018-01-01,00:03:56,2728,+0014
a,003,2018-01-01,00:03:57,2728,-0004
a,003,2018-01-01,00:03:58,2728,-0004
a,003,2018-01-01,00:03:59,2728,-0004
a,003,2018-01-01,00:04:00,2728,-0004
